<?xml version="1.0" encoding="UTF-8"?>
<svg width="24px" height="18px" viewBox="0 0 24 18" version="1.1" xmlns="http://www.w3.org/2000/svg" xmlns:xlink="http://www.w3.org/1999/xlink">
    <!-- Generator: Sketch 53.2 (72643) - https://sketchapp.com -->
    <title>envelope 24x18 gray</title>
    <desc>Created with Sketch.</desc>
    <g id="iconos" stroke="none" stroke-width="1" fill="none" fill-rule="evenodd">
        <g transform="translate(-466.000000, -468.000000)" fill="#4F4F4F" fill-rule="nonzero" id="envelope-24x18-gray">
            <g transform="translate(466.000000, 468.000000)">
                <path d="M21.75,0 L2.25,0 C1.0078125,0 0,1.0078125 0,2.25 L0,15.75 C0,16.9921875 1.0078125,18 2.25,18 L21.75,18 C22.9921875,18 24,16.9921875 24,15.75 L24,2.25 C24,1.0078125 22.9921875,0 21.75,0 Z M2.25,1.5 L21.75,1.5 C22.1625,1.5 22.5,1.8375 22.5,2.25 L22.5,4.190625 C21.4734375,5.0578125 20.00625,6.253125 15.440625,9.8765625 C14.6484375,10.5046875 13.0875,12.01875 12,12 C10.9125,12.01875 9.346875,10.5046875 8.559375,9.8765625 C3.99375,6.253125 2.5265625,5.0578125 1.5,4.190625 L1.5,2.25 C1.5,1.8375 1.8375,1.5 2.25,1.5 Z M21.75,16.5 L2.25,16.5 C1.8375,16.5 1.5,16.1625 1.5,15.75 L1.5,6.140625 C2.56875,7.0171875 4.25625,8.371875 7.6265625,11.0484375 C8.5875,11.8171875 10.284375,13.509375 12,13.5 C13.70625,13.5140625 15.3890625,11.8359375 16.3734375,11.0484375 C19.74375,8.371875 21.43125,7.0171875 22.5,6.140625 L22.5,15.75 C22.5,16.1625 22.1625,16.5 21.75,16.5 Z" id="Shape"></path>
            </g>
        </g>
    </g>
</svg>