<?xml version="1.0" encoding="UTF-8"?>
<svg width="32px" height="32px" viewBox="0 0 32 32" version="1.1" xmlns="http://www.w3.org/2000/svg" xmlns:xlink="http://www.w3.org/1999/xlink">
    <!-- Generator: Sketch 53.2 (72643) - https://sketchapp.com -->
    <title>chevron-circle-right 32x32 gray</title>
    <desc>Created with Sketch.</desc>
    <g id="iconos" stroke="none" stroke-width="1" fill="none" fill-rule="evenodd">
        <g transform="translate(-404.000000, -461.000000)" fill="#4F4F4F" fill-rule="nonzero" id="chevron-circle-right-32x32-gray">
            <g transform="translate(404.000000, 461.000000)">
                <path d="M16,0 C24.8387097,0 32,7.16129032 32,16 C32,24.8387097 24.8387097,32 16,32 C7.16129032,32 0,24.8387097 0,16 C0,7.16129032 7.16129032,0 16,0 Z M23.3483871,14.9032258 L14.6064516,6.16129032 C14,5.55483871 13.0193548,5.55483871 12.4193548,6.16129032 L11.3225806,7.25806452 C10.716129,7.86451613 10.716129,8.84516129 11.3225806,9.44516129 L17.8774194,16 L11.3225806,22.5548387 C10.716129,23.1612903 10.716129,24.1419355 11.3225806,24.7419355 L12.4193548,25.8387097 C13.0258065,26.4451613 14.0064516,26.4451613 14.6064516,25.8387097 L23.3483871,17.0967742 C23.9548387,16.4903226 23.9548387,15.5096774 23.3483871,14.9032258 Z" id="Shape"></path>
            </g>
        </g>
    </g>
</svg>